{
    "classes":
    {
        "services_autorun": [ "any" ],
        "cfenigne_internal_purge_policies": [ "any" ],
        "cfengine_internal_disable_agent_email": [ "enterprise_edition" ]
    },

    "inputs": [
	        "$(sys.libdir)/bundles.cf",
	        "services/multimasterfiles_stage.cf",
		"services/ssh/def.cf"
              ]
}
